{
  "version": "14.0.0",
  "vulnerabilities": [
    {
      "id": "bc71cd43fc55258533d3a11e038d1e179f677d2560da3f7db2ab2d94773a8dec",
      "category": "sast",
      "message": "Improper Check for Unusual or Exceptional Conditions",
      "description": "Use of assert detected. The enclosed code will be removed when\ncompiling to optimised byte code.\n",
      "cve": "",
      "severity": "Info",
      "scanner": {
        "id": "semgrep",
        "name": "Semgrep"
      },
      "location": {
        "file": "tests/test_simple.py",
        "start_line": 7,
        "end_line": 7
      },
      "identifiers": [
        {
          "type": "semgrep_id",
          "name": "bandit.B101",
          "value": "bandit.B101"
        },
        {
          "type": "cwe",
          "name": "CWE-754",
          "value": "754",
          "url": "https://cwe.mitre.org/data/definitions/754.html"
        },
        {
          "type": "bandit_test_id",
          "name": "Bandit Test ID B101",
          "value": "B101"
        }
      ]
    }
  ],
  "remediations": [],
  "scan": {
    "scanner": {
      "id": "semgrep",
      "name": "Semgrep",
      "url": "https://github.com/returntocorp/semgrep",
      "vendor": {
        "name": "GitLab"
      },
      "version": "0.39.1"
    },
    "type": "sast",
    "start_time": "2021-04-29T15:12:48",
    "end_time": "2021-04-29T15:13:00",
    "status": "success"
  }
}
